%YAML 1.1
%TAG !u! tag:unity3d.com,2011:
--- !u!1 &2788618035042893687
GameObject:
  m_ObjectHideFlags: 0
  m_CorrespondingSourceObject: {fileID: 0}
  m_PrefabInstance: {fileID: 0}
  m_PrefabAsset: {fileID: 0}
  serializedVersion: 6
  m_Component:
  - component: {fileID: 2788618035042893686}
  - component: {fileID: 2788618035042893680}
  - component: {fileID: 2788618035042893681}
  m_Layer: 9
  m_Name: Picture
  m_TagString: Untagged
  m_Icon: {fileID: 0}
  m_NavMeshLayer: 0
  m_StaticEditorFlags: 0
  m_IsActive: 1
--- !u!4 &2788618035042893686
Transform:
  m_ObjectHideFlags: 0
  m_CorrespondingSourceObject: {fileID: 0}
  m_PrefabInstance: {fileID: 0}
  m_PrefabAsset: {fileID: 0}
  m_GameObject: {fileID: 2788618035042893687}
  m_LocalRotation: {x: 0, y: 0, z: 0, w: 1}
  m_LocalPosition: {x: 0, y: 0, z: 0}
  m_LocalScale: {x: 1, y: 1, z: 1}
  m_Children:
  - {fileID: 3015092618625927448}
  m_Father: {fileID: 0}
  m_RootOrder: 0
  m_LocalEulerAnglesHint: {x: 0, y: 0, z: 0}
--- !u!114 &2788618035042893680
MonoBehaviour:
  m_ObjectHideFlags: 0
  m_CorrespondingSourceObject: {fileID: 0}
  m_PrefabInstance: {fileID: 0}
  m_PrefabAsset: {fileID: 0}
  m_GameObject: {fileID: 2788618035042893687}
  m_Enabled: 1
  m_EditorHideFlags: 0
  m_Script: {fileID: 11500000, guid: 62ede276fdb843bbaa15b90fdfa8dbff, type: 3}
  m_Name: 
  m_EditorClassIdentifier: 
  _sprite: {fileID: 21300000, guid: 5adea6e2cd14c8149bdbd5857b764223, type: 3}
  _actionToDo: {fileID: 11400000, guid: acd20a959408fb04f8384403817f29ff, type: 2}
--- !u!65 &2788618035042893681
BoxCollider:
  m_ObjectHideFlags: 0
  m_CorrespondingSourceObject: {fileID: 0}
  m_PrefabInstance: {fileID: 0}
  m_PrefabAsset: {fileID: 0}
  m_GameObject: {fileID: 2788618035042893687}
  m_Material: {fileID: 0}
  m_IsTrigger: 0
  m_Enabled: 1
  serializedVersion: 2
  m_Size: {x: 0.15816835, y: 0.19613099, z: 0.107163504}
  m_Center: {x: -0.001905635, y: 0.006792426, z: -0.011360131}
--- !u!1001 &3340962556375510771
PrefabInstance:
  m_ObjectHideFlags: 0
  serializedVersion: 2
  m_Modification:
    m_TransformParent: {fileID: 2788618035042893686}
    m_Modifications:
    - target: {fileID: -8679921383154817045, guid: 7dd83e3bf9e0b6b4caca46b129855db6,
        type: 3}
      propertyPath: m_RootOrder
      value: 0
      objectReference: {fileID: 0}
    - target: {fileID: -8679921383154817045, guid: 7dd83e3bf9e0b6b4caca46b129855db6,
        type: 3}
      propertyPath: m_LocalPosition.x
      value: -0
      objectReference: {fileID: 0}
    - target: {fileID: -8679921383154817045, guid: 7dd83e3bf9e0b6b4caca46b129855db6,
        type: 3}
      propertyPath: m_LocalPosition.y
      value: 0
      objectReference: {fileID: 0}
    - target: {fileID: -8679921383154817045, guid: 7dd83e3bf9e0b6b4caca46b129855db6,
        type: 3}
      propertyPath: m_LocalPosition.z
      value: 0
      objectReference: {fileID: 0}
    - target: {fileID: -8679921383154817045, guid: 7dd83e3bf9e0b6b4caca46b129855db6,
        type: 3}
      propertyPath: m_LocalRotation.w
      value: 1
      objectReference: {fileID: 0}
    - target: {fileID: -8679921383154817045, guid: 7dd83e3bf9e0b6b4caca46b129855db6,
        type: 3}
      propertyPath: m_LocalRotation.x
      value: 0
      objectReference: {fileID: 0}
    - target: {fileID: -8679921383154817045, guid: 7dd83e3bf9e0b6b4caca46b129855db6,
        type: 3}
      propertyPath: m_LocalRotation.y
      value: -0
      objectReference: {fileID: 0}
    - target: {fileID: -8679921383154817045, guid: 7dd83e3bf9e0b6b4caca46b129855db6,
        type: 3}
      propertyPath: m_LocalRotation.z
      value: -0
      objectReference: {fileID: 0}
    - target: {fileID: -8679921383154817045, guid: 7dd83e3bf9e0b6b4caca46b129855db6,
        type: 3}
      propertyPath: m_LocalEulerAnglesHint.x
      value: 0
      objectReference: {fileID: 0}
    - target: {fileID: -8679921383154817045, guid: 7dd83e3bf9e0b6b4caca46b129855db6,
        type: 3}
      propertyPath: m_LocalEulerAnglesHint.y
      value: 0
      objectReference: {fileID: 0}
    - target: {fileID: -8679921383154817045, guid: 7dd83e3bf9e0b6b4caca46b129855db6,
        type: 3}
      propertyPath: m_LocalEulerAnglesHint.z
      value: 0
      objectReference: {fileID: 0}
    - target: {fileID: 919132149155446097, guid: 7dd83e3bf9e0b6b4caca46b129855db6,
        type: 3}
      propertyPath: m_Name
      value: PICTURE FRAME
      objectReference: {fileID: 0}
    m_RemovedComponents: []
  m_SourcePrefab: {fileID: 100100000, guid: 7dd83e3bf9e0b6b4caca46b129855db6, type: 3}
--- !u!4 &3015092618625927448 stripped
Transform:
  m_CorrespondingSourceObject: {fileID: -8679921383154817045, guid: 7dd83e3bf9e0b6b4caca46b129855db6,
    type: 3}
  m_PrefabInstance: {fileID: 3340962556375510771}
  m_PrefabAsset: {fileID: 0}
